core/tb_datapath.vcd
$date
	Wed Nov 05 06:25:59 2025
$end
$version
	Icarus Verilog
$end
$timescale
	1ps
$end
$scope module tb_datapath $end
$var wire 1 ! stall_debug $end
$var wire 32 " pc_current [31:0] $end
$var wire 32 # mem_out_debug [31:0] $end
$var wire 32 $ instruction_current [31:0] $end
$var wire 2 % forward_b_debug [1:0] $end
$var wire 2 & forward_a_debug [1:0] $end
$var wire 32 ' branch_target_debug [31:0] $end
$var wire 1 ( branch_taken_debug $end
$var wire 32 ) alu_result_debug [31:0] $end
$var reg 1 * clock $end
$var reg 1 + reset $end
$var reg 32 , x10_value [31:0] $end
$var reg 32 - x1_value [31:0] $end
$var reg 32 . x2_value [31:0] $end
$var reg 32 / x3_value [31:0] $end
$var integer 32 0 branch_count [31:0] $end
$var integer 32 1 cycle_count [31:0] $end
$var integer 32 2 i [31:0] $end
$var integer 32 3 loop_iterations [31:0] $end
$var integer 32 4 stall_count [31:0] $end
$scope module dut $end
$var wire 4 5 alu_control_ex [3:0] $end
$var wire 32 6 alu_result_debug [31:0] $end
$var wire 1 ( branch_taken_debug $end
$var wire 1 7 branch_taken_detected $end
$var wire 1 8 branch_taken_reg $end
$var wire 32 9 branch_target_debug [31:0] $end
$var wire 32 : branch_target_reg [31:0] $end
$var wire 2 ; byte_size_ex [1:0] $end
$var wire 1 * clock $end
$var wire 2 < forward_a_debug [1:0] $end
$var wire 2 = forward_b_debug [1:0] $end
$var wire 32 > instruction_current [31:0] $end
$var wire 32 ? mem_out_debug [31:0] $end
$var wire 32 @ pc_current [31:0] $end
$var wire 5 A rd_mem [4:0] $end
$var wire 1 B regwrite_mem $end
$var wire 1 + reset $end
$var wire 1 C sign_ext $end
$var wire 1 ! stall_debug $end
$var wire 1 D zero_flag $end
$var wire 32 E write_data_wb [31:0] $end
$var wire 32 F wb_data_temp [31:0] $end
$var wire 1 G stall $end
$var wire 5 H rs2_id [4:0] $end
$var wire 5 I rs2_ex [4:0] $end
$var wire 5 J rs1_id [4:0] $end
$var wire 5 K rs1_ex [4:0] $end
$var wire 1 L regwrite_wb $end
$var wire 1 M regwrite_id $end
$var wire 1 N regwrite_ex $end
$var wire 32 O read_data2_id [31:0] $end
$var wire 32 P read_data2_ex [31:0] $end
$var wire 32 Q read_data1_id [31:0] $end
$var wire 32 R read_data1_ex [31:0] $end
$var wire 5 S rd_wb [4:0] $end
$var wire 5 T rd_id [4:0] $end
$var wire 5 U rd_ex [4:0] $end
$var wire 32 V pc_plus_4_wb [31:0] $end
$var wire 32 W pc_plus_4_ex [31:0] $end
$var wire 32 X pc_if [31:0] $end
$var wire 32 Y pc_id [31:0] $end
$var wire 32 Z pc_ex [31:0] $end
$var wire 7 [ opcode_id [6:0] $end
$var wire 7 \ opcode_ex [6:0] $end
$var wire 1 ] memwrite_id $end
$var wire 1 ^ memwrite_ex $end
$var wire 1 _ memtoreg_wb $end
$var wire 1 ` memtoreg_id $end
$var wire 1 a memtoreg_ex $end
$var wire 1 b memread_id $end
$var wire 1 c memread_ex $end
$var wire 32 d mem_read_data [31:0] $end
$var wire 32 e mem_data_wb [31:0] $end
$var wire 1 f less_than_u $end
$var wire 1 g less_than $end
$var wire 1 h jump_wb $end
$var wire 1 i jump_id $end
$var wire 1 j jump_ex $end
$var wire 32 k jalr_target [31:0] $end
$var wire 1 l is_lui $end
$var wire 1 m is_jalr $end
$var wire 1 n is_jal $end
$var wire 1 o is_branch $end
$var wire 1 p is_auipc $end
$var wire 32 q instruction_if [31:0] $end
$var wire 32 r instruction_id [31:0] $end
$var wire 32 s imm_id [31:0] $end
$var wire 32 t imm_ex [31:0] $end
$var wire 7 u funct7_id [6:0] $end
$var wire 7 v funct7_ex [6:0] $end
$var wire 3 w funct3_id [2:0] $end
$var wire 3 x funct3_ex [2:0] $end
$var wire 2 y forward_b [1:0] $end
$var wire 2 z forward_a [1:0] $end
$var wire 1 { flush_if_id $end
$var wire 1 | flush_id_ex $end
$var wire 2 } byte_size_id [1:0] $end
$var wire 32 ~ branch_target_pc_based [31:0] $end
$var wire 32 !" branch_target_calc [31:0] $end
$var wire 1 "" branch_id $end
$var wire 1 #" branch_ex $end
$var wire 1 $" branch_decision $end
$var wire 1 %" alusrc_id $end
$var wire 1 &" alusrc_ex $end
$var wire 2 '" aluop_id [1:0] $end
$var wire 32 (" alu_result_wb [31:0] $end
$var wire 32 )" alu_result_mem [31:0] $end
$var wire 32 *" alu_result_ex [31:0] $end
$var wire 32 +" alu_in2 [31:0] $end
$var wire 32 ," alu_in1 [31:0] $end
$var wire 4 -" alu_control_id [3:0] $end
$var reg 4 ." alu_control_ex_reg [3:0] $end
$var reg 32 /" alu_in1_forwarded [31:0] $end
$var reg 32 0" alu_result_mem_reg [31:0] $end
$var reg 32 1" alu_result_wb_reg [31:0] $end
$var reg 2 2" byte_size_ex_reg [1:0] $end
$var reg 2 3" byte_size_mem [1:0] $end
$var reg 32 4" forwarded_data2 [31:0] $end
$var reg 3 5" funct3_mem [2:0] $end
$var reg 1 6" jump_mem $end
$var reg 1 h jump_wb_reg $end
$var reg 32 7" mem_data_wb_reg [31:0] $end
$var reg 1 8" memread_mem $end
$var reg 1 9" memtoreg_mem $end
$var reg 1 _ memtoreg_wb_reg $end
$var reg 1 :" memwrite_mem $end
$var reg 7 ;" opcode_ex_reg [6:0] $end
$var reg 32 <" pc_plus_4_mem [31:0] $end
$var reg 32 =" pc_plus_4_wb_reg [31:0] $end
$var reg 5 >" rd_mem_reg [4:0] $end
$var reg 5 ?" rd_wb_reg [4:0] $end
$var reg 1 @" regwrite_mem_reg $end
$var reg 1 L regwrite_wb_reg $end
$var reg 32 A" write_data_mem [31:0] $end
$scope module alu_unit $end
$var wire 4 B" alu_control [3:0] $end
$var wire 32 C" in1 [31:0] $end
$var wire 32 D" in1_signed [31:0] $end
$var wire 32 E" in2 [31:0] $end
$var wire 32 F" in2_signed [31:0] $end
$var wire 1 D zero_flag $end
$var wire 64 G" mul_result_unsigned [63:0] $end
$var wire 64 H" mul_result_signed [63:0] $end
$var wire 1 f less_than_u $end
$var wire 1 g less_than $end
$var parameter 4 I" ALU_ADD $end
$var parameter 4 J" ALU_AND $end
$var parameter 4 K" ALU_DIV $end
$var parameter 4 L" ALU_DIVU $end
$var parameter 4 M" ALU_MUL $end
$var parameter 4 N" ALU_MULH $end
$var parameter 4 O" ALU_OR $end
$var parameter 4 P" ALU_REM $end
$var parameter 4 Q" ALU_REMU $end
$var parameter 4 R" ALU_SLL $end
$var parameter 4 S" ALU_SLT $end
$var parameter 4 T" ALU_SLTU $end
$var parameter 4 U" ALU_SRA $end
$var parameter 4 V" ALU_SRL $end
$var parameter 4 W" ALU_SUB $end
$var parameter 4 X" ALU_XOR $end
$var reg 32 Y" alu_result [31:0] $end
$upscope $end
$scope module branch_unit $end
$var wire 1 g less_than $end
$var wire 1 f less_than_u $end
$var wire 1 D zero_flag $end
$var wire 3 Z" funct3 [2:0] $end
$var wire 1 #" branch $end
$var parameter 3 [" BEQ $end
$var parameter 3 \" BGE $end
$var parameter 3 ]" BGEU $end
$var parameter 3 ^" BLT $end
$var parameter 3 _" BLTU $end
$var parameter 3 `" BNE $end
$var reg 1 $" taken $end
$upscope $end
$scope module control_unit $end
$var wire 3 a" funct3 [2:0] $end
$var wire 7 b" funct7 [6:0] $end
$var wire 7 c" opcode [6:0] $end
$var parameter 4 d" ALU_ADD $end
$var parameter 4 e" ALU_AND $end
$var parameter 4 f" ALU_DIV $end
$var parameter 4 g" ALU_DIVU $end
$var parameter 4 h" ALU_MUL $end
$var parameter 4 i" ALU_MULH $end
$var parameter 4 j" ALU_OR $end
$var parameter 4 k" ALU_REM $end
$var parameter 4 l" ALU_REMU $end
$var parameter 4 m" ALU_SLL $end
$var parameter 4 n" ALU_SLT $end
$var parameter 4 o" ALU_SLTU $end
$var parameter 4 p" ALU_SRA $end
$var parameter 4 q" ALU_SRL $end
$var parameter 4 r" ALU_SUB $end
$var parameter 4 s" ALU_XOR $end
$var parameter 3 t" F3_ADD_SUB $end
$var parameter 3 u" F3_AND $end
$var parameter 3 v" F3_BEQ $end
$var parameter 3 w" F3_BGE $end
$var parameter 3 x" F3_BGEU $end
$var parameter 3 y" F3_BLT $end
$var parameter 3 z" F3_BLTU $end
$var parameter 3 {" F3_BNE $end
$var parameter 3 |" F3_BYTE $end
$var parameter 3 }" F3_BYTE_U $end
$var parameter 3 ~" F3_DIV $end
$var parameter 3 !# F3_DIVU $end
$var parameter 3 "# F3_HALF $end
$var parameter 3 ## F3_HALF_U $end
$var parameter 3 $# F3_MUL $end
$var parameter 3 %# F3_MULH $end
$var parameter 3 &# F3_OR $end
$var parameter 3 '# F3_REM $end
$var parameter 3 (# F3_REMU $end
$var parameter 3 )# F3_SLL $end
$var parameter 3 *# F3_SLT $end
$var parameter 3 +# F3_SLTU $end
$var parameter 3 ,# F3_SRL_SRA $end
$var parameter 3 -# F3_WORD $end
$var parameter 3 .# F3_XOR $end
$var parameter 7 /# F7_DEFAULT $end
$var parameter 7 0# F7_MULDIV $end
$var parameter 7 1# F7_SUB_SRA $end
$var parameter 7 2# OP_AUIPC $end
$var parameter 7 3# OP_BRANCH $end
$var parameter 7 4# OP_I_TYPE $end
$var parameter 7 5# OP_JAL $end
$var parameter 7 6# OP_JALR $end
$var parameter 7 7# OP_LOAD $end
$var parameter 7 8# OP_LUI $end
$var parameter 7 9# OP_R_TYPE $end
$var parameter 7 :# OP_STORE $end
$var reg 4 ;# alu_control [3:0] $end
$var reg 2 <# aluop [1:0] $end
$var reg 1 %" alusrc $end
$var reg 1 "" branch $end
$var reg 2 =# byte_size [1:0] $end
$var reg 1 i jump $end
$var reg 1 b memread $end
$var reg 1 ` memtoreg $end
$var reg 1 ] memwrite $end
$var reg 1 M regwrite $end
$upscope $end
$scope module data_memory $end
$var wire 32 ># address [31:0] $end
$var wire 2 ?# byte_size [1:0] $end
$var wire 1 * clock $end
$var wire 1 8" memread $end
$var wire 1 :" memwrite $end
$var wire 1 C sign_ext $end
$var wire 32 @# write_data [31:0] $end
$var wire 10 A# byte_addr [9:0] $end
$var reg 32 B# read_data [31:0] $end
$var integer 32 C# i [31:0] $end
$upscope $end
$scope module forward_unit $end
$var wire 5 D# rd_mem [4:0] $end
$var wire 5 E# rd_wb [4:0] $end
$var wire 1 B regwrite_mem $end
$var wire 1 L regwrite_wb $end
$var wire 5 F# rs2_ex [4:0] $end
$var wire 5 G# rs1_ex [4:0] $end
$var reg 2 H# forward_a [1:0] $end
$var reg 2 I# forward_b [1:0] $end
$upscope $end
$scope module hazard_unit $end
$var wire 1 8 branch_taken $end
$var wire 5 J# rs1_id [4:0] $end
$var wire 5 K# rs2_id [4:0] $end
$var wire 5 L# rd_id_ex [4:0] $end
$var wire 1 c memread_id_ex $end
$var reg 1 | flush_id_ex $end
$var reg 1 { flush_if_id $end
$var reg 1 G stall $end
$upscope $end
$scope module id_ex_reg $end
$var wire 1 %" alusrc_in $end
$var wire 1 "" branch_in $end
$var wire 1 * clock $end
$var wire 1 | flush $end
$var wire 3 M# funct3_in [2:0] $end
$var wire 7 N# funct7_in [6:0] $end
$var wire 1 i jump_in $end
$var wire 1 b memread_in $end
$var wire 1 ` memtoreg_in $end
$var wire 1 ] memwrite_in $end
$var wire 5 O# rd_in [4:0] $end
$var wire 1 M regwrite_in $end
$var wire 1 + reset $end
$var wire 5 P# rs1_in [4:0] $end
$var wire 5 Q# rs2_in [4:0] $end
$var wire 1 R# stall $end
$var wire 32 S# read_data2_in [31:0] $end
$var wire 32 T# read_data1_in [31:0] $end
$var wire 32 U# pc_in [31:0] $end
$var wire 32 V# imm_in [31:0] $end
$var reg 1 &" alusrc_out $end
$var reg 1 #" branch_out $end
$var reg 3 W# funct3_out [2:0] $end
$var reg 7 X# funct7_out [6:0] $end
$var reg 32 Y# imm_out [31:0] $end
$var reg 1 j jump_out $end
$var reg 1 c memread_out $end
$var reg 1 a memtoreg_out $end
$var reg 1 ^ memwrite_out $end
$var reg 32 Z# pc_out [31:0] $end
$var reg 5 [# rd_out [4:0] $end
$var reg 32 \# read_data1_out [31:0] $end
$var reg 32 ]# read_data2_out [31:0] $end
$var reg 1 N regwrite_out $end
$var reg 5 ^# rs1_out [4:0] $end
$var reg 5 _# rs2_out [4:0] $end
$upscope $end
$scope module if_id_reg $end
$var wire 1 * clock $end
$var wire 1 { flush $end
$var wire 1 + reset $end
$var wire 1 G stall $end
$var wire 32 `# pc_in [31:0] $end
$var wire 32 a# instr_in [31:0] $end
$var parameter 32 b# NOP $end
$var reg 32 c# instr_out [31:0] $end
$var reg 32 d# pc_out [31:0] $end
$upscope $end
$scope module ifu $end
$var wire 1 * clock $end
$var wire 1 8 pc_src $end
$var wire 1 + reset $end
$var wire 1 G stall $end
$var wire 32 e# target_pc [31:0] $end
$var wire 32 f# next_pc [31:0] $end
$var wire 32 g# Instruction_Code [31:0] $end
$var reg 32 h# PC [31:0] $end
$var reg 32 i# PC_out [31:0] $end
$scope module inst_memory $end
$var wire 32 j# Instruction_Code [31:0] $end
$var wire 32 k# PC [31:0] $end
$var wire 1 + reset $end
$var wire 10 l# word_addr [9:0] $end
$upscope $end
$upscope $end
$scope module immediate_gen $end
$var wire 32 m# instr [31:0] $end
$var wire 7 n# opcode [6:0] $end
$var parameter 7 o# OP_AUIPC $end
$var parameter 7 p# OP_BRANCH $end
$var parameter 7 q# OP_I_TYPE $end
$var parameter 7 r# OP_JAL $end
$var parameter 7 s# OP_JALR $end
$var parameter 7 t# OP_LOAD $end
$var parameter 7 u# OP_LUI $end
$var parameter 7 v# OP_R_TYPE $end
$var parameter 7 w# OP_STORE $end
$var reg 32 x# imm [31:0] $end
$upscope $end
$scope module register_file $end
$var wire 1 * clock $end
$var wire 5 y# read_reg_num1 [4:0] $end
$var wire 5 z# read_reg_num2 [4:0] $end
$var wire 1 L regwrite $end
$var wire 1 + reset $end
$var wire 32 {# write_data [31:0] $end
$var wire 5 |# write_reg [4:0] $end
$var wire 32 }# read_data2 [31:0] $end
$var wire 32 ~# read_data1 [31:0] $end
$var integer 32 !$ i [31:0] $end
$upscope $end
$upscope $end
$scope begin execution_loop $end
$var integer 32 "$ prev_pc [31:0] $end
$var integer 32 #$ stable_count [31:0] $end
$upscope $end
$upscope $end
$scope module tb_datapath $end
$scope module dut $end
$scope module register_file $end
$var reg 32 $$ \registers[0] [31:0] $end
$upscope $end
$upscope $end
$upscope $end
$scope module tb_datapath $end
$scope module dut $end
$scope module register_file $end
$var reg 32 %$ \registers[1] [31:0] $end
$upscope $end
$upscope $end
$upscope $end
$scope module tb_datapath $end
$scope module dut $end
$scope module register_file $end
$var reg 32 &$ \registers[2] [31:0] $end
$upscope $end
$upscope $end
$upscope $end
$scope module tb_datapath $end
$scope module dut $end
$scope module register_file $end
$var reg 32 '$ \registers[3] [31:0] $end
$upscope $end
$upscope $end
$upscope $end
$scope module tb_datapath $end
$scope module dut $end
$scope module register_file $end
$var reg 32 ($ \registers[4] [31:0] $end
$upscope $end
$upscope $end
$upscope $end
$scope module tb_datapath $end
$scope module dut $end
$scope module register_file $end
$var reg 32 )$ \registers[5] [31:0] $end
$upscope $end
$upscope $end
$upscope $end
$scope module tb_datapath $end
$scope module dut $end
$scope module register_file $end
$var reg 32 *$ \registers[6] [31:0] $end
$upscope $end
$upscope $end
$upscope $end
$scope module tb_datapath $end
$scope module dut $end
$scope module register_file $end
$var reg 32 +$ \registers[7] [31:0] $end
$upscope $end
$upscope $end
$upscope $end
$scope module tb_datapath $end
$scope module dut $end
$scope module register_file $end
$var reg 32 ,$ \registers[8] [31:0] $end
$upscope $end
$upscope $end
$upscope $end
$scope module tb_datapath $end
$scope module dut $end
$scope module register_file $end
$var reg 32 -$ \registers[9] [31:0] $end
$upscope $end
$upscope $end
$upscope $end
$scope module tb_datapath $end
$scope module dut $end
$scope module register_file $end
$var reg 32 .$ \registers[10] [31:0] $end
$upscope $end
$upscope $end
$upscope $end
$scope module tb_datapath $end
$scope module dut $end
$scope module register_file $end
$var reg 32 /$ \registers[11] [31:0] $end
$upscope $end
$upscope $end
$upscope $end
$scope module tb_datapath $end
$scope module dut $end
$scope module register_file $end
$var reg 32 0$ \registers[12] [31:0] $end
$upscope $end
$upscope $end
$upscope $end
$scope module tb_datapath $end
$scope module dut $end
$scope module register_file $end
$var reg 32 1$ \registers[13] [31:0] $end
$upscope $end
$upscope $end
$upscope $end
$scope module tb_datapath $end
$scope module dut $end
$scope module register_file $end
$var reg 32 2$ \registers[14] [31:0] $end
$upscope $end
$upscope $end
$upscope $end
$scope module tb_datapath $end
$scope module dut $end
$scope module register_file $end
$var reg 32 3$ \registers[15] [31:0] $end
$upscope $end
$upscope $end
$upscope $end
$scope module tb_datapath $end
$scope module dut $end
$scope module register_file $end
$var reg 32 4$ \registers[16] [31:0] $end
$upscope $end
$upscope $end
$upscope $end
$scope module tb_datapath $end
$scope module dut $end
$scope module register_file $end
$var reg 32 5$ \registers[17] [31:0] $end
$upscope $end
$upscope $end
$upscope $end
$scope module tb_datapath $end
$scope module dut $end
$scope module register_file $end
$var reg 32 6$ \registers[18] [31:0] $end
$upscope $end
$upscope $end
$upscope $end
$scope module tb_datapath $end
$scope module dut $end
$scope module register_file $end
$var reg 32 7$ \registers[19] [31:0] $end
$upscope $end
$upscope $end
$upscope $end
$scope module tb_datapath $end
$scope module dut $end
$scope module register_file $end
$var reg 32 8$ \registers[20] [31:0] $end
$upscope $end
$upscope $end
$upscope $end
$scope module tb_datapath $end
$scope module dut $end
$scope module register_file $end
$var reg 32 9$ \registers[21] [31:0] $end
$upscope $end
$upscope $end
$upscope $end
$scope module tb_datapath $end
$scope module dut $end
$scope module register_file $end
$var reg 32 :$ \registers[22] [31:0] $end
$upscope $end
$upscope $end
$upscope $end
$scope module tb_datapath $end
$scope module dut $end
$scope module register_file $end
$var reg 32 ;$ \registers[23] [31:0] $end
$upscope $end
$upscope $end
$upscope $end
$scope module tb_datapath $end
$scope module dut $end
$scope module register_file $end
$var reg 32 <$ \registers[24] [31:0] $end
$upscope $end
$upscope $end
$upscope $end
$scope module tb_datapath $end
$scope module dut $end
$scope module register_file $end
$var reg 32 =$ \registers[25] [31:0] $end
$upscope $end
$upscope $end
$upscope $end
$scope module tb_datapath $end
$scope module dut $end
$scope module register_file $end
$var reg 32 >$ \registers[26] [31:0] $end
$upscope $end
$upscope $end
$upscope $end
$scope module tb_datapath $end
$scope module dut $end
$scope module register_file $end
$var reg 32 ?$ \registers[27] [31:0] $end
$upscope $end
$upscope $end
$upscope $end
$scope module tb_datapath $end
$scope module dut $end
$scope module register_file $end
$var reg 32 @$ \registers[28] [31:0] $end
$upscope $end
$upscope $end
$upscope $end
$scope module tb_datapath $end
$scope module dut $end
$scope module register_file $end
$var reg 32 A$ \registers[29] [31:0] $end
$upscope $end
$upscope $end
$upscope $end
$scope module tb_datapath $end
$scope module dut $end
$scope module register_file $end
$var reg 32 B$ \registers[30] [31:0] $end
$upscope $end
$upscope $end
$upscope $end
$scope module tb_datapath $end
$scope module dut $end
$scope module register_file $end
$var reg 32 C$ \registers[31] [31:0] $end
$upscope $end
$upscope $end
$upscope $end
$enddefinitions $end
$comment Show the parameter values. $end
$dumpall
b100011 w#
b110011 v#
b110111 u#
b11 t#
b1100111 s#
b1101111 r#
b10011 q#
b1100011 p#
b10111 o#
b10011 b#
b100011 :#
b110011 9#
b110111 8#
b11 7#
b1100111 6#
b1101111 5#
b10011 4#
b1100011 3#
b10111 2#
b100000 1#
b1 0#
b0 /#
b100 .#
b10 -#
b101 ,#
b11 +#
b10 *#
b1 )#
b111 (#
b110 '#
b110 &#
b1 %#
b0 $#
b101 ##
b1 "#
b101 !#
b100 ~"
b100 }"
b0 |"
b1 {"
b110 z"
b100 y"
b111 x"
b101 w"
b0 v"
b111 u"
b0 t"
b100 s"
b1 r"
b110 q"
b111 p"
b1001 o"
b1000 n"
b101 m"
b1111 l"
b1110 k"
b11 j"
b1011 i"
b1010 h"
b1101 g"
b1100 f"
b10 e"
b0 d"
b1 `"
b110 _"
b100 ^"
b111 ]"
b101 \"
b0 ["
b100 X"
b1 W"
b110 V"
b111 U"
b1001 T"
b1000 S"
b101 R"
b1111 Q"
b1110 P"
b11 O"
b1011 N"
b1010 M"
b1101 L"
b1100 K"
b10 J"
b0 I"
$end
#0
$dumpvars
b0 C$
b0 B$
b0 A$
b0 @$
b0 ?$
b0 >$
b0 =$
b0 <$
b0 ;$
b0 :$
b0 9$
b0 8$
b0 7$
b0 6$
b0 5$
b0 4$
b0 3$
b0 2$
b0 1$
b0 0$
b0 /$
b0 .$
b0 -$
b0 ,$
b0 +$
b0 *$
b0 )$
b0 ($
b0 '$
b0 &$
b0 %$
b0 $$
bx #$
bx "$
b100000 !$
b0 ~#
b0 }#
b0 |#
b0 {#
b0 z#
b0 y#
b0 x#
b10011 n#
b10011 m#
b0 l#
b0 k#
b10010011 j#
b0 i#
b0 h#
b10010011 g#
b100 f#
b0 e#
b0 d#
b10011 c#
b10010011 a#
b0 `#
b0 _#
b0 ^#
b0 ]#
b0 \#
b0 [#
b0 Z#
b0 Y#
b0 X#
b0 W#
b0 V#
b0 U#
b0 T#
b0 S#
0R#
b0 Q#
b0 P#
b0 O#
b0 N#
b0 M#
b0 L#
b0 K#
b0 J#
b0 I#
b0 H#
b0 G#
b0 F#
b0 E#
b0 D#
b10000000000 C#
bx B#
b0 A#
b0 @#
b10 ?#
b0 >#
b10 =#
b10 <#
b0 ;#
b10011 c"
b0 b"
b0 a"
b0 Z"
b0 Y"
b0 H"
b0 G"
b0 F"
b0 E"
b0 D"
b0 C"
b0 B"
b0 A"
0@"
b0 ?"
b0 >"
b0 ="
b0 <"
b0 ;"
0:"
09"
08"
b0 7"
06"
b0 5"
b0 4"
b10 3"
b10 2"
b0 1"
b0 0"
b0 /"
b0 ."
b0 -"
b0 ,"
b0 +"
b0 *"
b0 )"
b0 ("
b10 '"
0&"
1%"
0$"
0#"
0""
b0 !"
b0 ~
b10 }
0|
0{
b0 z
b0 y
b0 x
b0 w
b0 v
b0 u
b0 t
b0 s
b10011 r
b10010011 q
0p
0o
0n
0m
0l
b0 k
0j
0i
0h
0g
0f
b0 e
bx d
0c
0b
0a
0`
0_
0^
0]
b0 \
b10011 [
b0 Z
b0 Y
b0 X
b100 W
b0 V
b0 U
b0 T
b0 S
b0 R
b0 Q
b0 P
b0 O
0N
1M
0L
b0 K
b0 J
b0 I
b0 H
0G
b0 F
b0 E
1D
1C
0B
b0 A
b0 @
bx ?
b10010011 >
b0 =
b0 <
b10 ;
b0 :
b0 9
08
07
b0 6
b0 5
b0 4
b0 3
b100000 2
b0 1
b0 0
bx /
bx .
bx -
bx ,
1+
0*
b0 )
0(
b0 '
b0 &
b0 %
b10010011 $
bx #
b0 "
0!
$end
#5000
b0 C$
b0 B$
b0 A$
b0 @$
b0 ?$
b0 >$
b0 =$
b0 <$
b0 ;$
b0 :$
b0 9$
b0 8$
b0 7$
b0 6$
b0 5$
b0 4$
b0 3$
b0 2$
b0 1$
b0 0$
b0 /$
b0 .$
b0 -$
b0 ,$
b0 +$
b0 *$
b0 )$
b0 ($
b0 '$
b0 &$
b0 %$
b0 $$
b100000 !$
1*
#10000
0*
#15000
b0 C$
b0 B$
b0 A$
b0 @$
b0 ?$
b0 >$
b0 =$
b0 <$
b0 ;$
b0 :$
b0 9$
b0 8$
b0 7$
b0 6$
b0 5$
b0 4$
b0 3$
b0 2$
b0 1$
b0 0$
b0 /$
b0 .$
b0 -$
b0 ,$
b0 +$
b0 *$
b0 )$
b0 ($
b0 '$
b0 &$
b0 %$
b0 $$
b100000 !$
1*
#20000
0*
b0 #$
b0 "$
0+
#25000
b1000 f#
b100000000000100010011 $
b100000000000100010011 >
b100000000000100010011 q
b100000000000100010011 a#
b100000000000100010011 g#
b100000000000100010011 j#
b1 l#
b1 T
b1 O#
b100 "
b100 @
b100 X
b100 `#
b100 i#
b100 k#
bx e
bx 7"
b100 <"
b10011 \
b10011 ;"
1&"
1N
b0 $$
b10010011 r
b10010011 c#
b10010011 m#
b100 h#
b0 ,
b0 /
b0 .
b0 -
b1 1
1*
#30000
0*
#35000
b1100 f#
b101000000000000110010011 $
b101000000000000110010011 >
b101000000000000110010011 q
b101000000000000110010011 a#
b101000000000000110010011 g#
b101000000000000110010011 j#
b10 l#
b1000 "
b1000 @
b1000 X
b1000 `#
b1000 i#
b1000 k#
b1 s
b1 V#
b1 x#
b1 H
b1 K#
b1 Q#
b1 z#
b10 T
b10 O#
b1000 h#
b100 Y
b100 U#
b100 d#
b100000000000100010011 r
b100000000000100010011 c#
b100000000000100010011 m#
b0 $$
b1 U
b1 L#
b1 [#
1B
1@"
b100 V
b100 ="
b100 "$
b10 1
1*
#40000
0*
#45000
0D
b1 )
b1 6
b1 *"
b1 Y"
b10000 f#
b1000001000000010110011 $
b1000001000000010110011 >
b1000001000000010110011 q
b1000001000000010110011 a#
b1000001000000010110011 g#
b1000001000000010110011 j#
b11 l#
b10 %
b10 =
b10 y
b10 I#
b101 '
b101 9
b101 :
b101 e#
b101 !"
1g
1f
b1 +"
b1 E"
b1 F"
b1010 s
b1010 V#
b1010 x#
b1010 H
b1010 K#
b1010 Q#
b1010 z#
b11 T
b11 O#
b1100 "
b1100 @
b1100 X
b1100 `#
b1100 i#
b1100 k#
1L
b1 A
b1 D#
b1 >"
b10 U
b10 L#
b10 [#
b1 I
b1 F#
b1 _#
b1000 W
b100 Z
b100 Z#
b101 ~
b1 k
b1 t
b1 Y#
b0 $$
b1000 Y
b1000 U#
b1000 d#
b101000000000000110010011 r
b101000000000000110010011 c#
b101000000000000110010011 m#
b1100 h#
b1000 "$
b11 1
1*
#50000
0*
#55000
b10100 f#
b100010000000100010011 $
b100010000000100010011 >
b100010000000100010011 q
b100010000000100010011 a#
b100010000000100010011 g#
b100010000000100010011 j#
b100 l#
b10 '"
b10 <#
0%"
1M
b1010 )
b1010 6
b1010 *"
b1010 Y"
b10000 "
b10000 @
b10000 X
b10000 `#
b10000 i#
b10000 k#
b0 s
b0 V#
b0 x#
b110011 n#
b10 H
b10 K#
b10 Q#
b10 z#
b1 J
b1 J#
b1 P#
b1 y#
b1 T
b1 O#
b110011 [
b110011 c"
b10010 '
b10010 9
b10010 :
b10010 e#
b10010 !"
b1010 +"
b1010 E"
b1010 F"
b1 A#
b0 %
b0 =
b0 y
b0 I#
b10000 h#
b1100 Y
b1100 U#
b1100 d#
b1000001000000010110011 r
b1000001000000010110011 c#
b1000001000000010110011 m#
b0 $$
b11 U
b11 L#
b11 [#
b1010 I
b1010 F#
b1010 _#
b1100 W
b1000 Z
b1000 Z#
b10010 ~
b1010 k
b1010 t
b1010 Y#
b1000 <"
b10 A
b10 D#
b10 >"
b1 )"
b1 0"
b1 >#
b1 S
b1 ?"
b1 E#
b1 |#
b1100 "$
b100 1
1*
#60000
0*
#65000
b1 Q
b1 T#
b1 ~#
b1 4"
b1 E
b1 {#
0D
b1 )
b1 6
b1 *"
b1 Y"
1%"
b10 '"
b10 <#
1M
b11000 f#
b11111110001100010100110011100011 $
b11111110001100010100110011100011 >
b11111110001100010100110011100011 q
b11111110001100010100110011100011 a#
b11111110001100010100110011100011 g#
b11111110001100010100110011100011 j#
b101 l#
b1 F
b1010 A#
b1 %
b1 =
b1 y
b1 I#
b1100 '
b1100 9
b1100 :
b1100 e#
b1100 !"
1g
1f
b1 +"
b1 E"
b1 F"
b1 s
b1 V#
b1 x#
b10011 n#
b1 H
b1 K#
b1 Q#
b1 z#
b10 J
b10 J#
b10 P#
b10 y#
b10 T
b10 O#
b10011 [
b10011 c"
b10100 "
b10100 @
b10100 X
b10100 `#
b10100 i#
b10100 k#
b10 S
b10 ?"
b10 E#
b10 |#
b1000 V
b1000 ="
b1 ("
b1 1"
b1100 <"
b11 A
b11 D#
b11 >"
b1010 )"
b1010 0"
b1010 >#
b110011 \
b110011 ;"
b1 U
b1 L#
b1 [#
b10 I
b10 F#
b10 _#
b1 K
b1 G#
b1 ^#
b10000 W
b1100 Z
b1100 Z#
b1100 ~
b0 k
b0 t
b0 Y#
0&"
b0 $$
b0 %$
b10000 Y
b10000 U#
b10000 d#
b100010000000100010011 r
b100010000000100010011 c#
b100010000000100010011 m#
b10100 h#
b10000 "$
b101 1
1*
#70000
0*
